<svg xmlns="http://www.w3.org/2000/svg" xmlns:xlink="http://www.w3.org/1999/xlink" style="display:none">
<symbol id="icon-noun-phone" viewBox="0 0 100 125"><path
d="M42.687,82.442c2.535,1.108,5.038,2.301,7.599,3.337c2.654,0.769,5.253,1.693,7.924,2.326
c2.724,0.417,5.412,1.045,8.143,1.291c2.72,0.053,5.551,0.389,8.158,0.215c2.558-0.365,4.792-1.94,6.767-3.752
c1.968-1.833,3.69-3.956,5.26-6.18c0.794-1.106,1.521-2.261,2.237-3.422l1.023-1.765l0.243-0.443c0.004,0,0.151-0.304,0.036-0.053
l0.072-0.251c0.057-0.3,0.279-0.734,0.2-0.925c-0.078-0.194-0.063-0.354-0.104-0.563c-0.123-0.213-0.227-0.424-0.317-0.651
c-0.328-0.294-0.632-0.638-1.331-1.008l-3.546-2.156l-14.19-8.622l-1.767-1.089l-0.441-0.272l-0.11-0.068
c0.372,0.177,0.034,0.022,0.085,0.051l-0.243-0.092c-0.289-0.08-0.725-0.34-0.893-0.272c-0.185,0.04-0.343,0.038-0.532,0.015
c-0.229,0.079-0.455,0.144-0.689,0.196c-0.417,0.247-0.681,0.34-1.234,0.936l-5.847,5.891l-1.463,1.472l-0.73,0.736l-0.366,0.368
l-0.257,0.213l-0.053,0.036l-0.109,0.07l-0.215,0.143c-0.306,0.34-1.799,0.906-2.774,0.744c-1.012-0.043-1.959-0.659-2.635-1.242
l-5.891-5.848L32.907,50.115l-1.472-1.461l-0.736-0.732l-0.185-0.181l-0.045-0.047l-0.217-0.259l-0.074-0.105l-0.291-0.431
c-0.098-0.151-0.194-0.264-0.292-0.449c-0.102-0.273-0.196-0.564-0.27-0.862c-0.181-0.623-0.208-1.191-0.066-1.674
c0.04-1.014,0.895-2.02,1.361-2.562l5.862-5.875l1.473-1.463l0.736-0.73l0.093-0.092l0.047-0.045
c-0.062,0.075,0.2-0.232-0.126,0.158l0.146-0.215l0.292-0.429c0.289-0.338,0.185-0.474,0.204-0.594
c0.042-0.104,0.085-0.266,0.028-0.504c0.021-0.487-0.159-0.697-0.387-1.195l-4.758-6.803L24.712,9.958l-0.595-0.85l-0.296-0.426
c0.332,0.381,0.064,0.081,0.126,0.155L23.9,8.792l-0.092-0.089l-0.188-0.179c-0.251-0.266-0.542-0.515-0.595-0.385
c-0.093,0.025-0.134-0.105-0.355-0.034c-0.408-0.028-0.583,0.121-1.078,0.408l-1.516,1.308c-1.993,1.817-3.886,3.767-5.519,5.883
c-1.627,2.11-3.044,4.392-3.837,6.813c-0.349,1.22-0.591,2.422-0.523,3.662l0.18,4.146c-0.021,2.814,0.653,5.383,0.983,8.079
c0.502,2.654,1.299,5.283,2.029,7.899c1.875,5.105,4.022,10.177,7.137,14.687c2.882,4.658,6.589,8.735,10.479,12.606l-0.674,0.74
l-0.198-0.192l0.721-0.678c0.661,0.908,1.219,1.888,1.535,2.959c0.113,0.546,0.334,1.07,0.329,1.633
c0.03,0.517,0.121,1.163,0.015,1.668c-0.079,0.529-0.064,1.048-0.277,1.591c-0.181,0.532-0.292,1.097-0.591,1.561
c-0.464,0.993-1.185,1.863-1.927,2.622l-8.975,9.015l8.618-9.358c0.704-0.782,1.321-1.595,1.723-2.542
c0.266-0.446,0.333-0.948,0.481-1.421c0.177-0.453,0.151-1.02,0.209-1.539c0.083-0.547-0.036-0.958-0.076-1.497
c-0.009-0.51-0.238-0.976-0.354-1.463c-0.321-0.957-0.861-1.812-1.476-2.599l0.721-0.677l0.206,0.185l-0.676,0.74
c-4.083-3.775-8.09-7.756-11.114-12.49c-3.288-4.551-5.615-9.704-7.657-14.926c-0.815-2.682-1.689-5.356-2.274-8.118
c-0.417-2.782-1.167-5.617-1.203-8.359L7.82,26.31c-0.113-1.531,0.134-3.088,0.555-4.521c0.916-2.857,2.467-5.345,4.19-7.62
c1.734-2.278,3.699-4.328,5.779-6.253L19.961,6.5c0.642-0.46,1.705-1.093,2.718-1c0.923-0.147,2.542,0.748,2.735,1.116
l0.188,0.177l0.096,0.089l0.047,0.045c0.092,0.104-0.14-0.172,0.219,0.245l0.3,0.423l0.6,0.846l9.615,13.535l4.807,6.767
c0.421,0.702,0.959,1.744,0.912,2.675c0.202,0.783-0.368,2.397-0.708,2.844l-0.289,0.431l-0.143,0.215l-0.213,0.253l-0.045,0.047
l-0.091,0.09l-0.732,0.738l-1.46,1.472l-5.872,5.868c-0.383,0.508-0.545,0.595-0.578,1.006c-0.091,0.195-0.042,0.304-0.03,0.361
c-0.006,0.042-0.032,0.088-0.068,0.157c0.055,0.117,0.181,0.279,0.268,0.417l0.289,0.432l0.072,0.107
c0.049,0.064-0.3-0.366-0.13-0.162l0.045,0.045l0.183,0.185l0.732,0.736l1.461,1.472l11.701,11.78l5.849,5.889
c0.406,0.285,0.617,0.47,1.034,0.502c0.359-0.057,0.338,0.223,1.103-0.321l0.217-0.142l0.109-0.07l0.055-0.036
c0.064-0.047-0.362,0.291-0.161,0.126l0.368-0.366l0.736-0.73l1.472-1.463l5.891-5.848c0.372-0.43,1.284-1.142,2.089-1.481
l1.314-0.345c0.502-0.015,1.036,0.021,1.54,0.081c0.532,0.06,0.704,0.232,1.072,0.341l0.242,0.095
c0.13,0.064-0.119-0.076,0.323,0.155l0.109,0.068l0.439,0.275l1.757,1.104l13.998,8.93l3.499,2.231
c0.531,0.287,1.269,0.868,1.875,1.585c0.204,0.4,0.396,0.813,0.568,1.225c0.112,0.457,0.115,1.002,0.117,1.493
c-0.009,0.5-0.181,0.708-0.262,1.076l-0.078,0.247c-0.16,0.419-0.123,0.255-0.192,0.412l-0.264,0.46l-1.099,1.803
c-0.763,1.18-1.537,2.35-2.38,3.473c-1.671,2.258-3.498,4.422-5.625,6.316c-2.084,1.861-4.664,3.597-7.659,3.89
c-2.903,0.081-5.604-0.374-8.405-0.536c-2.759-0.357-5.464-1.097-8.188-1.625c-2.678-0.744-5.275-1.784-7.903-2.655
C47.631,84.936,45.176,83.646,42.687,82.442z"/></symbol>
<symbol id="icon-noun-house" viewBox="0 0 100 125"><path d="M49.886,35.245c9.927,0.077,19.855,0.131,29.783,0.025h0.03c0.354-0.004,0.704-0.142,0.974-0.416
c0.542-0.548,0.534-1.433-0.012-1.976L67.055,19.434l-6.83-6.697L56.78,9.417c-1.2-1.118-2.177-2.189-3.563-3.344
c-1.612-1.256-3.79-1.379-5.541-0.583c-1.832,0.989-2.594,2.303-3.786,3.394l-6.61,6.917l-13.079,13.97l13.972-13.083l6.91-6.611
c1.158-1.033,2.31-2.445,3.355-2.886c1.14-0.487,2.617-0.302,3.494,0.46c1.039,0.917,2.193,2.231,3.286,3.328l3.316,3.442
l6.699,6.83l11.06,11.193c-8.804-0.063-17.605-0.02-26.408,0.049c-9.928,0.092-19.855,0.038-29.782,0.275l-0.047,0.002
c-0.592,0.013-1.063,0.504-1.055,1.099c0.228,14.341,0.521,28.684,1.102,43.025c0.566-13.968,0.856-27.938,1.08-41.906
C30.75,35.197,40.318,35.156,49.886,35.245z"/><path d="M80.814,85.618l-0.164-9.231c-0.189-12.31-0.505-24.619-0.981-36.928
c-0.47,12.309-0.793,24.618-0.978,36.928l-0.162,9.231l-0.046,2.309l-0.023,1.031c-0.054,0.354-0.069,0.854-0.185,0.981
c-0.285,0.927-1.22,1.887-2.281,2.114c-0.267,0.094-0.535,0.06-0.824,0.11l-1.154-0.006l-2.305-0.016l-4.617-0.027l-7.85-0.045
l0.092-16.546l-0.026-4.477c-0.104-1.489,0.227-2.884-0.389-4.899c-0.67-1.947-2.348-3.284-4.26-3.746
c-1.058-0.179-1.828-0.135-2.536-0.131l-2.239,0.014c-1.562,0.063-2.824-0.106-4.637,0.147c-2.132,0.502-3.613,1.859-4.287,3.717
c-0.611,2.049-0.249,3.385-0.339,4.897l0.027,4.477l0.271,16.956l-8.112,0.146l-4.556,0.086l-2.274,0.067
c-0.812,0.021-1.442,0.069-2.212-0.019c-1.17-0.215-2.471-1.13-2.94-2.403c-0.477-1.226-0.292-2.867-0.4-4.358l-0.322-9.104
l-0.324,9.104l-0.068,2.276c-0.027,0.721-0.031,1.622,0.257,2.401c0.543,1.607,1.897,2.844,3.679,3.261
c0.735,0.131,1.628,0.141,2.332,0.158l2.274,0.068l4.556,0.086l9.104,0.164c0.53,0.008,0.966-0.414,0.974-0.942l0.004-0.033
l0.284-17.914l0.026-4.477c0.051-1.451-0.103-3.185,0.231-3.993c0.281-0.999,1.404-1.756,2.151-1.958
c1.143-0.192,2.886-0.039,4.302-0.075l2.239,0.014c0.785-0.008,1.513,0.009,1.932,0.092c0.962,0.242,1.893,1.018,2.171,1.93
c0.33,0.843,0.146,2.517,0.185,3.991l-0.024,4.477l0.097,17.914v0.016c0.004,0.756,0.62,1.364,1.374,1.36l9.235-0.054
l4.617-0.027l2.305-0.015l1.154-0.006c0.474-0.054,0.989-0.05,1.459-0.204c1.923-0.533,3.505-1.955,4.036-4.02
c0.185-0.593,0.142-0.879,0.192-1.285c0.027-0.627-0.004-0.837-0.004-1.275L80.814,85.618z"/></symbol>
<symbol id="icon-noun-mail" viewBox="0 0 100 125"><path d="M87.262,32.841l-37.147,17.82c-0.173,0.083-0.38,0.072-0.542,0L5.653,30.924l-0.034-0.015
c-0.397-0.177-0.625-0.578-0.608-0.987c0.062-1.384-0.222-2.769,0.254-4.509c0.548-1.791,1.959-3.089,3.68-3.61
c1.916-0.45,3.047-0.185,4.526-0.277l4.215-0.017l16.862-0.049l33.721-0.098l16.861-0.049l4.36,0.009
c0.506,0.01,1.84,0.243,2.57,0.742c0.831,0.439,1.498,1.128,2.023,1.895c0.471,0.799,0.846,1.691,0.887,2.625
c0.09,0.962,0.021,1.477,0.04,2.237l-0.011,4.215l-0.1,33.724l-0.011,4.215l-0.019,2.237c-0.06,0.388-0.017,0.612-0.164,1.136
c-0.128,0.497-0.288,0.992-0.523,1.361c-0.844,1.622-2.526,2.757-4.343,2.919c-1.686,0.111-2.887,0.024-4.356,0.045l-16.86-0.055
l-33.723-0.298l-16.862-0.15c-2.838-0.063-5.558,0.043-8.492-0.192c-1.72-0.384-2.974-1.514-3.629-2.993
c-0.603-1.585-0.283-3.036-0.333-4.405l0.531-33.723l0.531,33.723c0.073,1.409-0.117,2.874,0.371,3.934
c0.488,1.094,1.625,1.927,2.663,2.142c2.667,0.119,5.58-0.032,8.358-0.015l16.862-0.151l33.723-0.297l16.86-0.055
c1.341-0.022,2.955,0.032,4.072-0.055c0.994-0.085,1.906-0.714,2.352-1.599c0.151-0.226,0.175-0.412,0.249-0.589
c0.092-0.141,0.085-0.64,0.132-0.943l-0.009-1.978l-0.011-4.215l-0.1-33.724l-0.011-4.215c-0.019-0.642,0.03-1.539-0.042-1.974
c-0.005-0.48-0.226-0.914-0.448-1.324c-0.276-0.375-0.603-0.733-1.026-0.944c-0.463-0.264-0.557-0.301-1.438-0.394l-4.07-0.019
l-16.861-0.049l-33.721-0.098l-16.862-0.049l-4.215-0.017c-1.318,0.03-3.047-0.132-3.867,0.109
c-0.978,0.245-1.864,1.081-2.149,1.991c-0.345,0.964-0.177,2.461-0.237,3.867L6.576,28.92l43.537,20.57h-0.539L87.262,32.841z"/></symbol>
<symbol id="icon-noun-map" viewBox="0 0 67.201 68.4"><path d="M43.374,14.126c4.132-0.129,7.326-1.173,8.789,2.622
c2.24,5.814,6.47,13.137,9.156,18.611c1.367,2.783,3.233,6.058,2.405,8.291c-1.03,0.749-2.553,0.011-3.439-0.287
c-6.53,1.65-11.869,3.489-18.473,4.138c-11.147,1.096-24.084-6.768-37.706-2.419c-0.88-7.526,3.734-13.594,6.305-19.776
c1.661-3.991,2.575-8.285,5.446-11.179c3.473-0.076,6.457-0.94,9.172,0.287c1.456-3.935,4.342-6.324,7.739-7.166
C38.269,6.958,42.056,9.443,43.374,14.126z
M37.928,10.113c-5.744-4.696-12.49,1.779-12.039,8.026
c0.306,4.231,2.761,7.403,4.478,10.552c1.398,2.563,3.197,4.452,4.408,5.786C38.425,28.688,45.451,16.265,37.928,10.113z
M15.57,15.559c-1.384,3.01-2.855,5.934-3.726,9.458c4.368-0.791,8.122-2.196,12.898-2.579c-0.402-2.148-0.127-4.938-0.286-6.593
C21.012,15.156,19.644,15.62,15.57,15.559z
M43.946,16.132c-0.501,0.644-0.137,2.156-0.572,2.866c2.108-1.126,5.903,1.16,7.165-0.86
c-0.669-0.478-0.735-1.557-1.146-2.293C47.258,15.622,45.974,16.249,43.946,16.132z
M50.539,18.999
c-0.368,0.778-1.424,0.869-2.579,0.86c0.105,2.018-1.874,3.4-3.152,4.873c1.209,2.278,3.728,4.559,5.862,6.049
c2.042,1.427,4.327,3.252,7.322,2.55C55.626,28.434,53.494,23.306,50.539,18.999z
M42.227,23.012c0.92,0.226,1.252,1.04,2.006,1.433
c0.771-1.331,2.031-2.173,2.293-4.013c-0.684-0.653-2.173-0.501-3.152-0.86C42.845,20.572,42.583,21.839,42.227,23.012z
M24.743,23.871c-3.149,0.291-6.044,0.834-9.172,1.146c-0.252,2.004,0.365,5.276,1.434,6.88c1.658-0.91,3.657-2.907,5.16-2.293
c-0.241,0.332-0.945,0.113-0.853,0.777c-1.094-0.203-2.023,1.563-2.937,2.041c1.941,2.389,6.27,2.389,8.375,1.481
c0.325-1.873,1.313-3.082,1.72-4.873C27.879,26.999,26.784,25.008,24.743,23.871z
M39.647,27.884
c1.398,1.755,2.274,4.032,3.439,6.02c2.16-0.517,2.918-2.434,4.873-3.153c-1.811-2.299-3.941-4.276-6.307-6.02
C40.974,25.771,40.482,27,39.647,27.884z
M6.972,35.91C8,36.219,8.926,36.631,10.125,36.77c1.486-1.952,4.041-2.838,5.732-4.586
c-0.513-2.066-1.035-4.124-1.434-6.306C8.826,25.282,9.558,32.634,6.972,35.91z
M34.448,36.752
c-1.013-1.184-2.323-2.165-3.285-3.483c-0.718-0.987-0.684-2.118-2.121-2.518c-1.278,2.544-2.714,4.929-3.727,7.738
c2.626,1.291,4.408,3.427,7.166,4.586c3.346-2.004,7.069-3.632,9.745-6.306c-1.194-2.34-1.231-5.838-3.439-7.165
C37.798,32.533,36.205,34.592,34.448,36.752z
M48.247,31.324c-1.261,1.318-2.949,2.211-4.301,3.439
c0.735,4.711-0.144,3.48,8.026,8.312c1.375-0.727,3.73-0.474,4.586-1.72c-1.413-1.261-1.189-4.16-1.72-6.305
C52.56,33.865,50.71,32.11,48.247,31.324z
M17.004,33.33c-2.088,0.875-4.141,1.783-5.732,3.153
c-0.389,1.514-0.512,4.017,0.286,5.158c2.665,0.003,5.618,0.498,6.306-0.572c-0.068,0.408-0.472,0.483-0.573,0.859
c4.687,0.187,9.356,1.916,13.185,2.006c-3.293-3.4-6.35-4.768-11.752-4.012c1.066-1.695,3.152-1.122,5.16-1.434
c0.556-0.877,1.176-1.69,1.433-2.866C22.525,35.943,19.448,34.29,17.004,33.33z
M57.131,41.642c1.441-0.087,3.389,0.332,4.013-0.572
c-0.72-2.528-2.15-4.347-2.866-6.88C54.142,34.173,56.177,39.773,57.131,41.642z
M4.965,42.788c1.078,0.046,3.652-0.687,5.446-0.859
c0.06-2.089-0.284-2.801,0-4.586c-1.264-0.074-2.217-0.458-3.726-0.286C6.153,39.008,5.742,41.081,4.965,42.788z
M42.799,38.203
c-3.292,1.327-7.775,3.854-10.604,6.593c3.358,0.654,6.94,1.085,11.178,0.859c1.244-1.24,2.274-2.694,2.866-4.586
C44.801,40.406,43.554,39.551,42.799,38.203z
M45.093,45.081c2.045-0.438,4.309-0.658,5.159-2.293
c-1.607,0.271-1.943-0.73-3.152-0.859C46.342,42.892,45.32,43.589,45.093,45.081z"/><path d="M33.342,11.546c5.207-0.735,6.747,7.511,2.866,9.746
C29.494,25.158,25.691,12.626,33.342,11.546z
M35.542,19.833c1.692-1.194,1.792-5.474-0.767-7.14
C28.917,11.075,29.372,21.226,35.542,19.833z"/></symbol>
</svg>
