<svg xmlns="http://www.w3.org/2000/svg" width="258" height="196.6" viewBox="0 0 258 196.6">
  <title>Who Staffing Logo</title>
  <g> <path d="M45.2,101.3H45l-0.2.2H44.6l-0.7.6-1.5,1.3-1.7,1.9L39.2,107l-3,4.3-3,4.7q-1.5,2.4-2.7,4.7L28,125.7l-2.5,5a45.9,45.9,0,0,0-2.1,5,181.5,181.5,0,0,0-7.6,21,41.3,41.3,0,0,0-1.5,5.2l-1.1,5.2a16.8,16.8,0,0,0-.5,2.7c-0.1.8-.2,1.6-0.3,2.5a18.1,18.1,0,0,0-.2,2.5v2.3a0.8,0.8,0,0,1,.2.6l0.2-.2a8,8,0,0,0,1.5-1.9l1.7-2q1.5-2,2.9-4.4l2.9-4.9q1.5-2.4,2.7-4.8l2.5-5q2.6-5,4.8-10.1t4.3-10.5l2-5.3,2-5.3,0.9-2.8,0.6-1.3,0.4-1.3,0.9-2.8,0.4-1.3v-0.2l0.2-.9v0.2c0-.1,0-0.2.1-0.2s0.1-.1.1-0.2a9.7,9.7,0,0,1,4.7-6.5,10,10,0,0,1,8-1.1,9.7,9.7,0,0,1,6.3,4.6,10,10,0,0,1,1.3,7.7l-0.7,3.7-0.2.2-0.2.4-1.3,2.2L59.5,126,58,128.6l-1.5,2.4-2.2,3.5-1.7,3.5q-2.4,4.5-4.4,9t-3.6,9.2a38.9,38.9,0,0,0-1.6,4.6l-1.4,4.7-1.1,4.7L40,174.6a0.2,0.2,0,0,1,.2-0.2,35.5,35.5,0,0,0,2.4-3.5l1.2-2,1.2-2.1a26.9,26.9,0,0,0,2-4.3l2.1-4.5q1-2.2,2-4.7l3.6-9.3q1.8-4.7,3.4-9.5l3.4-9.7,3.4-9.7,3.7-10.1,2-5.2,2.2-5.4a11.4,11.4,0,0,1,15.3-5.4,11.3,11.3,0,0,1,4.9,4.4,11.4,11.4,0,0,1,1.8,6,44,44,0,0,1-1.5,5.7,16.5,16.5,0,0,1-1.1,2.3l-0.6.9-0.6.9-0.9,1.3a1.1,1.1,0,0,1-.4.7,43.1,43.1,0,0,0-3,7.1,16.6,16.6,0,0,0-.9,3.5,25.8,25.8,0,0,0-.7,3.1q-0.3,1.8,1.8.8l1.5-.9,1.5-1.3a18.2,18.2,0,0,0,2.8-2.6l2.6-3,2.5-3.2a25.7,25.7,0,0,0,2.1-3.5l2-3.5,0.7-1.9,0.7-1.9a6.5,6.5,0,0,1,3.1-3.3,4.6,4.6,0,0,1,4.2-.2,6.6,6.6,0,0,1,3.4,3,4.7,4.7,0,0,1,.2,4.3,3.9,3.9,0,0,1-1.5,2.2l-3.2,3.2-3,3.2-5.6,6.5-3,3.2a39.1,39.1,0,0,1-3.2,3.2l-1.8,1.7-1.8,1.5-0.9.7-1.1.7-1.3.7-1.5.7a6.1,6.1,0,0,0-1.9.4l-2.4-.2-2.2-.9a3.8,3.8,0,0,1-1.9-1.5,13.1,13.1,0,0,1-1.7-2l-5.4,9.3-9.5,18.1a20.7,20.7,0,0,0-1.3,2.2l-1.1,2.2-2.6,4.7L54.1,172l-1.4,2.3a14.3,14.3,0,0,1-1.6,2.3l-1.8,2.2-1.8,2.2-2.2,2.2-1.7,1.1-1.9,1.1-1.1.4-1.5.2H38.5v0.2H38.3l-0.2-.2H37.7l-1.7-.2-1.7-.7a5.5,5.5,0,0,1-1.5-1.3,3.1,3.1,0,0,1-1-1.2l-0.7-1.2-0.7-2.2a4.4,4.4,0,0,0-.1-0.8,5.1,5.1,0,0,1-.1-1,5.8,5.8,0,0,1-.2-1.4v-1.2a3.6,3.6,0,0,0-.9,1.3L25.6,181l-2,2.4a5,5,0,0,1-.9,1.3L21.5,186l-1.3,1.2a6,6,0,0,1-1.5,1.2l-1.7,1.3a12.8,12.8,0,0,1-2.6,1.3l-1.9.4h-2a7,7,0,0,1-3.2-.7l-1.7-.8-1.3-1a8.4,8.4,0,0,1-2-2.6,12.7,12.7,0,0,1-.9-2.2,2.9,2.9,0,0,1-.5-1.1,3.3,3.3,0,0,0-.3-0.9L0.1,178a20.6,20.6,0,0,1-.1-3.3q0.1-1.7.3-3.2t0.3-3.3a16.9,16.9,0,0,1,.5-3.1,103,103,0,0,1,2.2-11.7A218.8,218.8,0,0,1,10,130.7a235.1,235.1,0,0,1,8.4-22.2q1.1-2.8,2.4-5.6t2.8-5.6l1.5-3,1.7-2.8L29,88.4l1.3-1.5L31,86l0.2-.2h0.2l0.2-.2V85.4h0.2V85.3A10.5,10.5,0,0,1,39.2,82a10.2,10.2,0,0,1,7.4,2.9,9.9,9.9,0,0,1,3.3,7.3A10.2,10.2,0,0,1,47,99.6a3.4,3.4,0,0,1-.9.9Z"
  /> <path d="M103.3,103.3l4.1-8.4,4.1-8.4,2.2-4.2,2-4.2,4.5-8.2L129,53.6l2.2-4.1,1.9-5.4,3-9q1.5-4.6,3.2-9l1.9-4.7,1.9-4.7,2.2-4.8,0.7-1.2,0.7-1.4,0.4-.7,0.6-.7L148.9,6l0.9-1.1,0.6-.6,0.7-.7,0.9-.7,0.7-.6,0.9-.6,2.2-1.1,0.9-.2H161l1.1,0.2h1.5c-0.3,0-.2,0,0.1.1l0.7,0.3,1.5,0.6L167.3,2a11.4,11.4,0,0,1,2.6,2.2l0.9,1.1,0.7,1.3a7.5,7.5,0,0,1,1,2.1l0.5,1.8a4.5,4.5,0,0,1,.4,1.6v3.1a3.1,3.1,0,0,1-.1.7,3,3,0,0,0-.1.7,10.1,10.1,0,0,0-.4,2.2l-1.1,3.3a15.4,15.4,0,0,1-.9,2.7l-1.1,2.5-2.2,4.7-4.8,8.6q-1.1,2.2-2.3,4.3t-2.7,4.1a23.3,23.3,0,0,0-1.6,2.5,14,14,0,0,1-1.6,2.3q-3,8.2-5.8,16.3t-5.4,16.5l-10.8,32,3-5,3-4.8a23.9,23.9,0,0,0,1.6-2.5,13.8,13.8,0,0,1,1.6-2.3l3.3-5,2-2.4a24.5,24.5,0,0,1,2.2-2.6l1.3-1.5a2,2,0,0,0,.9-0.7l1.3-.9,2-1.1,1.7-.6,1.3-.2h0.4c0-.1.1-0.2,0.4-0.2h1.1L160,89h1.7a12.5,12.5,0,0,1,2.6,1.3,6.1,6.1,0,0,1,1.9,1.5,5.5,5.5,0,0,1,1.3,1.5,4.4,4.4,0,0,1,.7,1.1l0.6,1.1,0.6,1.9,0.3,1.3a6.8,6.8,0,0,1,.1,1.1,9,9,0,0,1,.2,2v3.5a8.8,8.8,0,0,1-.2,1.7,11.5,11.5,0,0,1-.1,1.6,11.1,11.1,0,0,0-.1,1.6l-0.9,5.8-1.1,5.8q-0.6,2.8-1.2,5.6t-1.4,5.6a5.8,5.8,0,0,0-.4,1.7l23.8-32a5.3,5.3,0,0,1,3.4-2,4.7,4.7,0,0,1,3.9,1.1,5.3,5.3,0,0,1,2,3.3,4.7,4.7,0,0,1-1.1,3.9l-43,58.1a6.1,6.1,0,0,1-3.5,2,5,5,0,0,1-3.9-.9,4.9,4.9,0,0,1-1.9-5.6,15.5,15.5,0,0,1,.4-2.8,15.5,15.5,0,0,1,.4-2.8l0.2-1.3,0.2-1.5,0.4-2.8,1.7-10.8,2.8-17.9q-2.4,3.5-4.6,7l-4.4,7-11.5,18.8-11.7,19-6.1,9.5q-2.9,4.7-6,9.3a4.5,4.5,0,0,1-2.5,2.8,4.6,4.6,0,0,1-3.6,0,5.2,5.2,0,0,1-2.5-2.2,4.3,4.3,0,0,1-.5-3.2l0.2-.9c0.1-.7.2-1.5,0.3-2.3a9.8,9.8,0,0,1,.5-2.3L98,183l0.4-2.4q0.6-2.2,1-4.6t0.8-4.6l1.9-9.2q0.9-4.6,2-9.2l4.1-18.2q2-9.1,4.3-18.2l2.6-10.8-3.4,3.5a5.4,5.4,0,0,1-7.4,0,4.6,4.6,0,0,1-1.6-2.8A5.1,5.1,0,0,1,103.3,103.3Z"
  /> <path d="M218.9,131.6l0.6,0.7,0.4,0.2,0.9,0.2,1.5-.4,0.9-.3a1.6,1.6,0,0,0,.9-0.5l1.9-1.1,1.9-1.5a48.1,48.1,0,0,0,3.5-3.5,36.4,36.4,0,0,0,3.4-3.9,25.4,25.4,0,0,0,3.2-4.3l1.5-2.2,0.7-1.3,0.7-1.1,0.7-1.1,0.7-1.3,0.7-1.1,0.7-1.3,2.2-4.8a5.9,5.9,0,0,1,3.4-3.6,6.4,6.4,0,0,1,5.1.1,5.9,5.9,0,0,1,3.4,3.3,6.7,6.7,0,0,1,.1,5l-0.6,1.1h-0.2l-1.5,2.5-1.7,2.5-1.5,2.4-3.4,4.8-1.7,2.4-3.4,4.8-1.9,2.4-2,2.2a26.2,26.2,0,0,1-4.3,4.7l-2.4,2.2-1.2,1-1.6,1-3.2,1.9a14.1,14.1,0,0,1-3.9,1.3,17.7,17.7,0,0,1-4.7.6,27.3,27.3,0,0,1-4.8-1.1l-0.6-.2-0.4-.2a36,36,0,0,1-2.1,4l-2.3,3.8-3.2,4.5q-1.7,2.2-3.7,4.5l-4.3,4.1-2.7,1.8-3.1,1.6a16.2,16.2,0,0,1-3.7.9l-1.9.2-0.4.2h-1.7a11.9,11.9,0,0,1-4.1-.7l-2-.9-2-1.3a15.6,15.6,0,0,1-3-3.5,9.1,9.1,0,0,1-.8-1.8l-0.7-1.8a20.5,20.5,0,0,1-1.1-6.5,15.3,15.3,0,0,1-.1-2.9q0.1-1.4.3-2.9c0.1-1,.2-1.9.3-2.8a16.5,16.5,0,0,1,.5-2.8l1.1-5.2,0.6-2.6q0.4-1.1.7-2.6l3.4-10.1,4.3-9.7a91.7,91.7,0,0,1,5-9.7,22.9,22.9,0,0,0,1.6-2.5,14.3,14.3,0,0,1,1.6-2.3l2-2.4a5,5,0,0,1,.9-1.3l1.1-1.3,2.8-2.4,1.8-1.2,2-1.2,2.4-1,3-.8,1.8-.2H209l1.9,0.2h0.7l0.2,0.2h0.7a11.4,11.4,0,0,1,7.9,4.5,11.5,11.5,0,0,1,2.5,8.7l-0.4,1.7a17.4,17.4,0,0,1,.7,2.8,19.6,19.6,0,0,1,.3,2c0.1,0.7.1,1.3,0.1,2v3.5q-0.2,1.5-.3,3.1a17,17,0,0,1-.5,3.1l-1.3,5.6-1.4,4.7a43.6,43.6,0,0,1-1.6,4.5A0.2,0.2,0,0,0,218.9,131.6Zm-23.6-12.3-2.5,4-2.3,4a57.7,57.7,0,0,0-3.9,8.4l-0.7,2L185,140q-0.4,1.1-.7,2.2a15.5,15.5,0,0,1-.7,2,9.7,9.7,0,0,0-.5,2.2,17.6,17.6,0,0,1-.3,2q-0.2,1.1-.3,2.1t-0.1,2a17.4,17.4,0,0,0,.4,3.4,3.2,3.2,0,0,1,.4.9l0.4,0.4,0.2,0.2h1.9l1.1-.4,2.6-1.7,2.8-2.8a11.4,11.4,0,0,1,1.3-1.7l1.1-1.9,2.2-3.7,1.9-4.1a44.2,44.2,0,0,0,1.7-4.3l0.8-3.1,0.8-3.1a31.8,31.8,0,0,1-1.7-5.6,46.9,46.9,0,0,1-1.1-6.5l-0.6-3.4v-0.7L197,117Z"
  /> </g>
</svg>
